module golang-practice

go 1.13

require (
	github.com/dgrijalva/jwt-go v3.2.0+incompatible
	github.com/gin-gonic/gin v1.7.1
	github.com/go-playground/validator/v10 v10.5.0
	github.com/go-sql-driver/mysql v1.6.0 // indirect
	github.com/golang/protobuf v1.5.2 // indirect
	github.com/gosimple/slug v1.10.0
	github.com/json-iterator/go v1.1.10 // indirect
	github.com/leodido/go-urn v1.2.1 // indirect
	github.com/modern-go/concurrent v0.0.0-20180306012644-bacd9c7ef1dd // indirect
	github.com/modern-go/reflect2 v1.0.1 // indirect
	github.com/ugorji/go v1.2.5 // indirect
	golang.org/x/crypto v0.0.0-20210421170649-83a5a9bb288b
	golang.org/x/text v0.3.6 // indirect
	golang.org/x/tools v0.1.5
	gopkg.in/yaml.v2 v2.4.0 // indirect
	gorm.io/driver/mysql v1.0.5
	gorm.io/gorm v1.21.8
)
